,date,city,rent,product
0,2022-01-01,İçel (Mersin),1,1776
1,2022-01-02,Çanakkale,6,1524
2,2022-01-03,İzmir,5,1241
3,2022-01-04,Ankara,17,1228
4,2022-01-05,Giresun,15,1271
5,2022-01-06,Kırıkkale,13,1479
6,2022-01-07,Ağrı,15,1388
7,2022-01-08,Çanakkale,5,1373
8,2022-01-09,Nevşehir,14,1121
9,2022-01-10,Manisa,1,1769
10,2022-01-11,Kırşehir,5,1771
11,2022-01-12,Aksaray,9,1131
12,2022-01-13,Aksaray,2,1943
13,2022-01-14,Balıkesir,7,1587
14,2022-01-15,Eskişehir,5,1449
15,2022-01-16,Bursa,11,1311
16,2022-01-17,Burdur,7,1787
17,2022-01-18,Bitlis,16,1846
18,2022-01-19,Gümüşhane,5,1189
19,2022-01-20,Kastamonu,12,1253
20,2022-01-21,Yalova,7,1752
21,2022-01-22,Aksaray,12,1646
22,2022-01-23,Siirt,2,1140
23,2022-01-24,Antalya,9,1726
24,2022-01-25,Karabük,14,1840
25,2022-01-26,Balıkesir,11,1164
26,2022-01-27,Batman,14,1951
27,2022-01-28,Malatya,2,1489
28,2022-01-29,Kütahya,16,1464
29,2022-01-30,Denizli,12,1085
30,2022-01-31,Zonguldak,9,1928
31,2022-02-01,Kastamonu,11,1228
32,2022-02-02,Kocaeli,14,1655
33,2022-02-03,Şanlıurfa,15,1913
34,2022-02-04,Siirt,2,1806
35,2022-02-05,Malatya,2,1956
36,2022-02-06,Tunceli,16,1059
37,2022-02-07,Bursa,5,1666
38,2022-02-08,Kayseri,8,1885
39,2022-02-09,Trabzon,13,1355
40,2022-02-10,Muğla,1,1246
41,2022-02-11,Amasya,12,1059
42,2022-02-12,Aksaray,9,1839
43,2022-02-13,Elazığ,6,1964
44,2022-02-14,Sivas,14,1906
45,2022-02-15,Muğla,2,1404
46,2022-02-16,Mardin,7,1840
47,2022-02-17,Sakarya,10,1431
48,2022-02-18,Muğla,8,1566
49,2022-02-19,Van,8,1769
50,2022-02-20,Kars,16,1737
51,2022-02-21,Afyon,12,1739
52,2022-02-22,Ağrı,8,1294
53,2022-02-23,Adıyaman,11,1966
54,2022-02-24,Mardin,1,1721
55,2022-02-25,Kocaeli,16,1720
56,2022-02-26,Zonguldak,1,1265
57,2022-02-27,Karaman,3,1107
58,2022-02-28,İçel (Mersin),12,1979
59,2022-03-01,Şanlıurfa,11,1387
60,2022-03-02,Bursa,12,1004
61,2022-03-03,İstanbul,2,1076
62,2022-03-04,Kocaeli,15,1636
63,2022-03-05,Diyarbakır,4,1327
64,2022-03-06,Nevşehir,13,1173
65,2022-03-07,Ağrı,7,1487
66,2022-03-08,Kayseri,3,1047
67,2022-03-09,Siirt,6,1769
68,2022-03-10,Erzincan,6,1460
69,2022-03-11,Batman,17,1351
70,2022-03-12,Bilecik,12,1690
71,2022-03-13,Bursa,6,1878
72,2022-03-14,Diyarbakır,10,1440
73,2022-03-15,Tekirdağ,16,1146
74,2022-03-16,Kırklareli,10,1722
75,2022-03-17,Tunceli,10,1482
76,2022-03-18,Bitlis,16,1392
77,2022-03-19,Denizli,16,1446
78,2022-03-20,Kastamonu,2,1215
79,2022-03-21,Erzincan,17,1452
80,2022-03-22,Bursa,3,1946
81,2022-03-23,Edirne,12,1513
82,2022-03-24,Yozgat,6,1785
83,2022-03-25,Elazığ,17,1356
84,2022-03-26,Hakkari,14,1470
85,2022-03-27,Kars,5,1111
86,2022-03-28,Adıyaman,15,1868
87,2022-03-29,İçel (Mersin),14,1665
88,2022-03-30,Kocaeli,12,1638
89,2022-03-31,Sakarya,4,1614
90,2022-04-01,Bayburt,12,1937
91,2022-04-02,Adıyaman,1,1076
92,2022-04-03,Kocaeli,10,1034
93,2022-04-04,İzmir,17,1601
94,2022-04-05,Bingöl,4,1219
95,2022-04-06,Burdur,14,1955
96,2022-04-07,Tokat,3,1450
97,2022-04-08,Bingöl,14,1504
98,2022-04-09,Kilis,14,1189
99,2022-04-10,Bartın,2,1147
100,2022-04-11,Bitlis,9,1498
101,2022-04-12,Tunceli,14,1091
102,2022-04-13,Van,1,1902
103,2022-04-14,Adıyaman,2,1196
104,2022-04-15,Bingöl,13,1949
105,2022-04-16,Kırşehir,9,1109
106,2022-04-17,Niğde,16,1705
107,2022-04-18,Niğde,12,1671
108,2022-04-19,Elazığ,7,1977
109,2022-04-20,Elazığ,14,1776
110,2022-04-21,Nevşehir,10,1354
111,2022-04-22,Yalova,1,1879
112,2022-04-23,Sivas,8,1627
113,2022-04-24,Bartın,15,1880
114,2022-04-25,Ankara,16,1070
115,2022-04-26,Kilis,17,1190
116,2022-04-27,Bayburt,15,1780
117,2022-04-28,Diyarbakır,7,1468
118,2022-04-29,Adıyaman,4,1799
119,2022-04-30,Uşak,5,1887
120,2022-05-01,Tokat,2,1721
121,2022-05-02,Konya,13,1627
122,2022-05-03,Gaziantep,10,1012
123,2022-05-04,Kars,14,1233
124,2022-05-05,Bolu,15,1609
125,2022-05-06,Gümüşhane,16,1788
126,2022-05-07,Niğde,1,1156
127,2022-05-08,Gaziantep,10,1276
128,2022-05-09,Kastamonu,13,1814
129,2022-05-10,Afyon,4,1149
130,2022-05-11,Mardin,11,1888
131,2022-05-12,Balıkesir,3,1101
132,2022-05-13,Afyon,1,1520
133,2022-05-14,Iğdır,12,1637
134,2022-05-15,Bitlis,12,1716
135,2022-05-16,Muğla,4,1859
136,2022-05-17,Çankırı,2,1549
137,2022-05-18,Balıkesir,6,1805
138,2022-05-19,Kayseri,8,1690
139,2022-05-20,Çankırı,16,1740
140,2022-05-21,Niğde,6,1258
141,2022-05-22,Karabük,10,1420
142,2022-05-23,Konya,5,1781
143,2022-05-24,Bartın,8,1737
144,2022-05-25,Düzce,15,1424
145,2022-05-26,Konya,16,1798
146,2022-05-27,Tunceli,17,1617
147,2022-05-28,Antalya,10,1431
148,2022-05-29,Kırıkkale,14,1813
149,2022-05-30,Antalya,16,1867
150,2022-05-31,Ankara,1,1801
151,2022-06-01,Yalova,7,1649
152,2022-06-02,Manisa,3,1961
153,2022-06-03,Isparta,12,1635
154,2022-06-04,Ağrı,6,1624
155,2022-06-05,Osmaniye,4,1203
156,2022-06-06,Kastamonu,11,1389
157,2022-06-07,İstanbul,13,1132
158,2022-06-08,Ağrı,16,1260
159,2022-06-09,Sivas,8,1258
160,2022-06-10,Hakkari,4,1189
161,2022-06-11,Sakarya,5,1336
162,2022-06-12,Bilecik,9,1098
163,2022-06-13,Diyarbakır,14,1309
164,2022-06-14,Afyon,5,1069
165,2022-06-15,Tunceli,5,1385
166,2022-06-16,Bursa,1,1207
167,2022-06-17,Afyon,7,1215
168,2022-06-18,Tekirdağ,16,1115
169,2022-06-19,Amasya,10,1777
170,2022-06-20,Nevşehir,14,1088
171,2022-06-21,Bolu,3,1771
172,2022-06-22,Trabzon,14,1583
173,2022-06-23,Sakarya,1,1933
174,2022-06-24,Tekirdağ,13,1340
175,2022-06-25,Ağrı,10,1869
176,2022-06-26,Giresun,15,1877
177,2022-06-27,Bursa,12,1153
178,2022-06-28,Gaziantep,8,1614
179,2022-06-29,Uşak,5,1976
180,2022-06-30,Artvin,6,1490
181,2022-07-01,Şırnak,5,1034
182,2022-07-02,Gaziantep,14,1043
183,2022-07-03,Balıkesir,8,1861
184,2022-07-04,Bolu,10,1237
185,2022-07-05,Tekirdağ,4,1523
186,2022-07-06,Van,2,1291
187,2022-07-07,Kütahya,16,1133
188,2022-07-08,Şanlıurfa,11,1314
189,2022-07-09,Bursa,12,1851
190,2022-07-10,Çanakkale,4,1111
191,2022-07-11,Muş,6,1074
192,2022-07-12,Niğde,3,1937
193,2022-07-13,Osmaniye,16,1155
194,2022-07-14,Aksaray,15,1962
195,2022-07-15,Çorum,6,1541
196,2022-07-16,Ordu,6,1460
197,2022-07-17,Hatay,10,1952
198,2022-07-18,Kahramanmaraş,14,1235
199,2022-07-19,İstanbul,4,1047
200,2022-07-20,Samsun,3,1183
201,2022-07-21,Manisa,15,1898
202,2022-07-22,Giresun,8,1860
203,2022-07-23,Şanlıurfa,14,1299
204,2022-07-24,Hakkari,2,1196
205,2022-07-25,Yozgat,12,1048
206,2022-07-26,Kastamonu,10,1768
207,2022-07-27,Erzincan,14,1651
208,2022-07-28,Bayburt,9,1352
209,2022-07-29,Tokat,15,1634
210,2022-07-30,Ağrı,17,1147
211,2022-07-31,Bolu,4,1987
212,2022-08-01,Sakarya,2,1776
213,2022-08-02,Erzincan,9,1905
214,2022-08-03,Sakarya,6,1208
215,2022-08-04,İçel (Mersin),9,1089
216,2022-08-05,Giresun,17,1196
217,2022-08-06,Tokat,14,1849
218,2022-08-07,Bingöl,1,1916
219,2022-08-08,Siirt,17,1368
220,2022-08-09,Kayseri,11,1001
221,2022-08-10,Giresun,11,1229
222,2022-08-11,Ağrı,13,1017
223,2022-08-12,Antalya,5,1579
224,2022-08-13,Aksaray,7,1300
225,2022-08-14,Edirne,12,1563
226,2022-08-15,İzmir,1,1622
227,2022-08-16,Kahramanmaraş,4,1435
228,2022-08-17,Gümüşhane,16,1920
229,2022-08-18,Kırklareli,13,1230
230,2022-08-19,Yalova,15,1134
231,2022-08-20,İçel (Mersin),17,1374
232,2022-08-21,Mardin,14,1349
233,2022-08-22,Siirt,7,1636
234,2022-08-23,Bingöl,6,1770
235,2022-08-24,Nevşehir,7,1565
236,2022-08-25,Malatya,15,1428
237,2022-08-26,Şırnak,6,1631
238,2022-08-27,Ordu,13,1526
239,2022-08-28,Bilecik,7,1271
240,2022-08-29,Kahramanmaraş,6,1325
241,2022-08-30,Batman,3,1396
242,2022-08-31,İzmir,5,1305
243,2022-09-01,Van,5,1856
244,2022-09-02,Siirt,12,1190
245,2022-09-03,Kırklareli,4,1707
246,2022-09-04,Tekirdağ,14,1626
247,2022-09-05,Eskişehir,6,1596
248,2022-09-06,Sakarya,16,1013
249,2022-09-07,Çankırı,5,1002
250,2022-09-08,Kastamonu,3,1310
251,2022-09-09,Karabük,16,1124
252,2022-09-10,Ağrı,13,1881
253,2022-09-11,Artvin,15,1817
254,2022-09-12,Antalya,10,1370
255,2022-09-13,Uşak,13,1899
256,2022-09-14,Edirne,4,1839
257,2022-09-15,Rize,6,1344
258,2022-09-16,Siirt,16,1396
259,2022-09-17,Niğde,16,1429
260,2022-09-18,Kırklareli,10,1217
261,2022-09-19,Erzincan,4,1908
262,2022-09-20,Kilis,3,1681
263,2022-09-21,Sakarya,7,1959
264,2022-09-22,Aksaray,9,1875
265,2022-09-23,Yozgat,2,1300
266,2022-09-24,Elazığ,2,1785
267,2022-09-25,Tekirdağ,5,1536
268,2022-09-26,Eskişehir,4,1707
269,2022-09-27,Ordu,6,1986
270,2022-09-28,Denizli,16,1715
271,2022-09-29,Afyon,3,1310
272,2022-09-30,Sakarya,11,1345
273,2022-10-01,Rize,4,1665
274,2022-10-02,Zonguldak,2,1912
275,2022-10-03,Bursa,1,1838
276,2022-10-04,Afyon,10,1249
277,2022-10-05,Bingöl,2,1480
278,2022-10-06,Adıyaman,9,1494
279,2022-10-07,Adıyaman,13,1049
280,2022-10-08,Çanakkale,5,1622
281,2022-10-09,Batman,5,1435
282,2022-10-10,Sakarya,5,1507
283,2022-10-11,Şanlıurfa,1,1425
284,2022-10-12,Kayseri,3,1416
285,2022-10-13,Adana,1,1825
286,2022-10-14,Siirt,3,1016
287,2022-10-15,Sivas,6,1623
288,2022-10-16,Kahramanmaraş,14,1277
289,2022-10-17,Antalya,1,1204
290,2022-10-18,İzmir,12,1859
291,2022-10-19,Konya,4,1203
292,2022-10-20,Ağrı,4,1363
293,2022-10-21,Afyon,16,1900
294,2022-10-22,Edirne,5,1250
295,2022-10-23,Kars,3,1664
296,2022-10-24,Yozgat,8,1882
297,2022-10-25,Van,2,1635
298,2022-10-26,Sivas,15,1554
299,2022-10-27,Artvin,1,1177
300,2022-10-28,Artvin,5,1861
301,2022-10-29,Kütahya,16,1193
302,2022-10-30,Hakkari,1,1505
303,2022-10-31,Bayburt,7,1884
304,2022-11-01,Elazığ,17,1826
305,2022-11-02,Zonguldak,5,1705
306,2022-11-03,Çorum,1,1739
307,2022-11-04,Denizli,16,1376
308,2022-11-05,Samsun,16,1355
309,2022-11-06,Van,5,1261
310,2022-11-07,Sinop,10,1415
311,2022-11-08,Erzurum,1,1450
312,2022-11-09,Muğla,12,1215
313,2022-11-10,Ağrı,5,1216
314,2022-11-11,Konya,14,1108
315,2022-11-12,Ardahan,5,1374
316,2022-11-13,Düzce,7,1133
317,2022-11-14,İçel (Mersin),13,1466
318,2022-11-15,Adana,17,1198
319,2022-11-16,Bilecik,13,1506
320,2022-11-17,Burdur,13,1628
321,2022-11-18,Iğdır,9,1849
322,2022-11-19,Kütahya,10,1270
323,2022-11-20,Muş,13,1287
324,2022-11-21,İçel (Mersin),8,1622
325,2022-11-22,Amasya,9,1501
326,2022-11-23,Afyon,14,1876
327,2022-11-24,Kocaeli,9,1026
328,2022-11-25,Elazığ,10,1411
329,2022-11-26,Sivas,13,1943
330,2022-11-27,Karaman,14,1279
331,2022-11-28,Sivas,16,1898
332,2022-11-29,Muğla,15,1474
333,2022-11-30,Tokat,11,1679
334,2022-12-01,Karabük,10,1202
335,2022-12-02,Kütahya,7,1972
336,2022-12-03,Mardin,9,1848
337,2022-12-04,Zonguldak,8,1309
338,2022-12-05,Yalova,5,1677
339,2022-12-06,Bartın,15,1502
340,2022-12-07,Düzce,6,1084
341,2022-12-08,Erzincan,10,1350
342,2022-12-09,Kırklareli,8,1034
343,2022-12-10,Bartın,6,1185
344,2022-12-11,Sivas,8,1419
345,2022-12-12,Burdur,3,1741
346,2022-12-13,Konya,10,1982
347,2022-12-14,Zonguldak,11,1485
348,2022-12-15,Yozgat,10,1223
349,2022-12-16,Nevşehir,2,1160
350,2022-12-17,Gaziantep,4,1698
351,2022-12-18,Karabük,15,1667
352,2022-12-19,Kırşehir,2,1130
353,2022-12-20,Yalova,12,1828
354,2022-12-21,Gaziantep,8,1936
355,2022-12-22,Isparta,9,1053
356,2022-12-23,Afyon,2,1116
357,2022-12-24,Bursa,17,1385
358,2022-12-25,Yozgat,15,1861
359,2022-12-26,Şırnak,10,1787
360,2022-12-27,Gaziantep,15,1665
361,2022-12-28,Adana,4,1798
362,2022-12-29,Karabük,3,1795
363,2022-12-30,Sivas,6,1156
